{
    "/js/admin.js": "/js/admin.js?id=74a32c61b428598cb052",
    "/js/app.js": "/js/app.js?id=aad34c72f5d501b32128",
    "/css/admin.css": "/css/admin.css?id=f61d7e04ee875dccec8b",
    "/css/app.css": "/css/app.css?id=55cfefc530db9ea5a4d7",
    "/js/manifest.js": "/js/manifest.js?id=41f053ba9a94d81b39f8",
    "/js/vendor.js": "/js/vendor.js?id=6354a8203da60875d9d6"
}
